{
  "swagger": "2.0",
  "info": {
    "version": "1.0.0",
    "title": "Incident Report Information Retrieval",
    "description": "Retrieves similar incident reports",
    "license": {
      "name": "",
      "url": "https://opensource.org/`license`s/MIT"
    }
  },
  "host": "prodapi.xpresso.ai:8084",
  "basePath": "/",
  "schemes": [
    "http"
  ],
  "consumes": [
    "application/json"
  ],
  "produces": [
    "application/json"
  ],
  "paths": {
    "/GetSimilarTickets": {
      "post": {
        "tags": [
          "GetSimilarTickets"
        ],
        "summary": "Retrieves Similar Incident Reports",

        "produces": [
          "application/json"
        ],
        "parameters": [{
          "name": "Incident Report Information",
          "in": "body",
          "required": true,
          "schema": {
            "required": [
              "token",
              "type",
              "text"
            ],
            "properties": {
              "token": {
                "type": "string",
                "uniqueItems": true
              },
              "type": {
                "type": "string",
                "uniqueItems": true
              },
              "text": {
                "type": "string",
                "uniqueItems": true
              }
            }
          }
        }],
        "responses": {
          "200": {
            "description": "success"
          },
          "400": {
            "description": "Invalid input"
          },
          "401": {
            "description": "User Token does not exist"
          },
          "404": {
            "description": "Access Denied"
          },
          "405": {
            "description": "Insufficient Information"
          },
          "500": {
            "description": "Internal Server error"
          }
        }
      }
    }
  }
}
