remote site containing node rtganorbb01 unreachable,IM3922544
g5s down triggered application app g5s prod trigger out transactions failed,IM3937797
g5s down triggered application app g5s prod trigger out transactions failed,IM3933249
g5s down triggered application app g5s prod trigger out transactions failed,IM3932312
g5s down triggered application app g5s prod trigger out transactions failed,IM3917008
url https sales prepaid sprint com boost sales portal faces login jsp failed load,IM3901567
g5s down triggered application app g5s prod trigger out transactions failed,IM3895148
g5s down triggered application app g5s prod trigger out transactions failed,IM3895109
g5s down triggered application app g5s prod trigger out transactions failed,IM3891279
g5s down triggered application app g5s prod trigger out transactions failed,IM3889909
g5s down triggered application app g5s prod trigger out transactions failed,IM3889767
g5s down triggered application app g5s prod trigger out transactions failed,IM3887860
g5s down triggered application app g5s prod trigger out transactions failed,IM3886386
g5s down triggered application app g5s prod trigger out transactions failed,IM3877026
g5s down triggered application app g5s prod trigger out transactions failed,IM3873197
g5s down triggered application app g5s prod trigger out transactions failed,IM3871930
g5s down triggered application app g5s prod trigger out transactions failed,IM3869525
node down,IM3901882
paging file total usage exceeds threshold,IM3870387
paging file total usage exceeds threshold,IM3870000
paging file total usage exceeds threshold,IM3869514
paging file total usage exceeds threshold,IM3869324
paging file total usage exceeds threshold,IM3868709
node down,IM3901744
node down,IM3901983
node down,IM3901873
node down,IM3901923
node down,IM3902212
node down,IM3902263
filesystem var exceed threshold,IM3937881
filesystem var exceed threshold,IM3937828
filesystem var exceed threshold,IM3937699
filesystem var exceed threshold,IM3937631
filesystem var exceed threshold,IM3937028
filesystem var exceed threshold,IM3936531
filesystem var exceed threshold,IM3936434
filesystem var exceed threshold,IM3936258
filesystem var exceed threshold,IM3935948
filesystem var exceed threshold,IM3935698
node down,IM3906749
node down,IM3898558
interface down,IM3913922
remote site containing node cnnjwoocb51 unreachable,IM3878126
node down,IM3901652
node down,IM3902256
free space disk drive less mb,IM3918345
free space disk drive less mb,IM3918342
paging file total usage exceeds threshold,IM3918337
free space disk drive less mb,IM3918333
filesystem home exceed threshold,IM3935059
filesystem oracle u02 exceeded minor threshold,IM3908536
filesystem oracle u02 exceeded minor threshold,IM3907100
filesystem oracle u02 exceeded minor threshold,IM3905632
filesystem oracle u02 exceeded minor threshold,IM3904951
filesystem oracle u02 exceeded minor threshold,IM3904202
filesystem oracle u02 exceeded minor threshold,IM3902562
filesystem oracle u02 exceeded minor threshold,IM3900082
filesystem oracle u02 exceeded minor threshold,IM3898750
filesystem oracle u02 exceeded minor threshold,IM3897320
filesystem oracle u02 exceeded minor threshold,IM3895653
filesystem oracle u02 exceeded minor threshold,IM3894929
filesystem oracle u02 exceeded minor threshold,IM3894127
filesystem oracle u02 exceeded minor threshold,IM3892705
filesystem oracle u02 exceeded minor threshold,IM3891239
filesystem oracle u02 exceeded minor threshold,IM3889704
filesystem oracle u02 exceeded minor threshold,IM3888265
filesystem oracle u02 exceeded minor threshold,IM3886924
filesystem oracle u02 exceeded minor threshold,IM3886319
filesystem oracle u02 exceeded minor threshold,IM3885546
filesystem oracle u02 exceeded minor threshold,IM3884200
filesystem oracle u02 exceeded minor threshold,IM3882468
filesystem oracle u02 exceeded minor threshold,IM3881030
filesystem oracle u02 exceeded minor threshold,IM3879421
filesystem oracle u02 exceeded minor threshold,IM3877817
filesystem oracle u02 exceeded minor threshold,IM3876889
filesystem oracle u02 exceeded minor threshold,IM3876071
filesystem oracle u02 exceeded minor threshold,IM3874722
filesystem oracle u02 exceeded minor threshold,IM3873332
filesystem oracle u02 exceeded minor threshold,IM3871797
node down,IM3901969
node down,IM3901648
node down,IM3901717
node down,IM3901965
node down,IM3902339
paging file total usage exceeds threshold,IM3873405
paging file total usage exceeds threshold,IM3873218
node down,IM3902120
node down,IM3902300
node down,IM3870846
drive free space mb mb violated threshold mb,IM3922437
free space disk drive less mb,IM3945631
free space disk drive less mb,IM3922418
free space disk drive less mb,IM3918359
free space disk drive less mb,IM3913836
free space disk drive less mb,IM3912517
free space disk drive less mb,IM3894050
free space disk drive less mb,IM3879222
access point down,IM3921107
access point down,IM3904234
access point down,IM3887037
access point down,IM3884391
access point down,IM3876899
access point down,IM3873335
access point down,IM3872042
access point down,IM3942363
access point down,IM3925918
access point down,IM3921038
access point down,IM3906060
access point down,IM3873338
access point down,IM3869484
node down,IM3901952
node down,IM3902330
node down,IM3901750
filesystem home exceed threshold,IM3879298
remote site containing node samospebr01 unreachable,IM3928330
process java standalone server xx xms4096m xmx4096m xx maxpermsize 512m verbose gc xx xx xloggc logs zfm production jboss pvmkg067 zfm production sparc 8009 voilated threshold,IM3936732
node down,IM3925559
node down,IM3917321
node down,IM3917125
node down,IM3916295
remote site containing node satxhoudr01 unreachable,IM3887078
filesystem tmp exceed threshold,IM3915645
filesystem tmp exceed threshold,IM3915518
filesystem tmp exceed threshold,IM3915476
filesystem tmp exceed threshold,IM3915466
filesystem tmp exceed threshold,IM3911402
filesystem tmp exceed threshold,IM3911384
filesystem tmp exceed threshold,IM3908855
filesystem tmp exceed threshold,IM3905623
filesystem tmp exceed threshold,IM3905515
filesystem tmp exceed threshold,IM3900128
filesystem tmp exceed threshold,IM3896582
filesystem tmp exceed threshold,IM3892750
filesystem tmp exceed threshold,IM3892722
filesystem tmp exceed threshold,IM3891273
filesystem tmp exceed threshold,IM3891183
filesystem tmp exceed threshold,IM3891162
filesystem tmp exceed threshold,IM3891138
filesystem tmp exceed threshold,IM3884142
node down,IM3941638
node down,IM3936238
node down,IM3913151
node down,IM3913076
node down,IM3900134
node down,IM3885625
remote site containing node satnmadar01 unreachable,IM3935032
remote site containing node satnmadar01 unreachable,IM3917692
remote site containing node satnmadar01 unreachable,IM3889579
node down,IM3876898
node down,IM3876884
node down,IM3876851
node down,IM3876717
node down,IM3876306
node down,IM3876174
node down,IM3876066
node down,IM3902068
node down,IM3925622
node down,IM3909941
node down,IM3925503
remote site containing node saohhowar01 unreachable,IM3908326
remote site containing node saohhowar01 unreachable,IM3905098
remote site containing node saohhowar01 unreachable,IM3897108
node down,IM3940792
node down,IM3922602
node down,IM3925502
node down,IM3943934
node down,IM3937778
node down,IM3937742
node down,IM3937732
node down,IM3937724
node down,IM3937636
node down,IM3937590
node down,IM3937581
node down,IM3937532
node down,IM3937508
node down,IM3936508
node down,IM3936446
node down,IM3936430
node down,IM3936423
node down,IM3936411
node down,IM3936383
node down,IM3871699
node down,IM3884220
filesystem home exceed threshold,IM3884512
interface down,IM3936754
node down,IM3922771
node down,IM3922763
node down,IM3922693
node down,IM3892202
node down,IM3886474
filesystem tmp exceed threshold,IM3917248
filesystem exceed threshold,IM3917247
filesystem tmp exceed threshold,IM3917237
filesystem exceed threshold,IM3917236
remote site containing node sawiglear01 unreachable,IM3895259
remote site containing node sawiglear01 unreachable,IM3894756
remote site containing node sawiglear01 unreachable,IM3894604
node down,IM3894309
node down,IM3873745
node down,IM3873627
node down,IM3881136
node down,IM3925603
node down,IM3918403
node down,IM3911372
node down,IM3943142
remote site containing node sancraefr01 unreachable,IM3928920
remote site containing node sancraefr01 unreachable,IM3897223
remote site containing node sacasdhkr01 unreachable,IM3925561
remote site containing node saflftlnr01 unreachable,IM3944012
remote site containing node saflftlnr01 unreachable,IM3924181
remote site containing node saflftlnr01 unreachable,IM3908533
node down,IM3876326
remote site containing node sanjwooar01 unreachable,IM3902552
node down,IM3925548
remote site containing node sascsmrbr01 unreachable,IM3934592
remote site containing node sascsmrbr01 unreachable,IM3921321
remote site containing node sascsmrbr01 unreachable,IM3904311
remote site containing node sascsmrbr01 unreachable,IM3892730
remote site containing node sascsmrbr01 unreachable,IM3888252
paging file total usage exceeds threshold,IM3869647
node down,IM3939105
node down,IM3934729
node down,IM3928032
node down,IM3912726
node down,IM3905311
node down,IM3904143
node down,IM3897266
node down,IM3877872
node down,IM3923009
node down,IM3877857
node down,IM3925682
node down,IM3894744
node down,IM3885487
node down,IM3918434
node down,IM3892683
node down,IM3908716
node down,IM3888135
node down,IM3912082
remote site containing node satxdriar01 unreachable,IM3917547
remote site containing node satxdriar01 unreachable,IM3880796
remote site containing node satxdriar01 unreachable,IM3879104
node down,IM3902136
remote site containing node sacothoar01 unreachable,IM3879462
remote site containing node sacogrjbr01 unreachable,IM3923184
remote site containing node sacogrjbr01 unreachable,IM3922329
remote site containing node sacogrjbr01 unreachable,IM3921999
remote site containing node sacogrjbr01 unreachable,IM3921621
remote site containing node sacogrjbr01 unreachable,IM3921448
remote site containing node sacogrjbr01 unreachable,IM3921421
remote site containing node sacogrjbr01 unreachable,IM3921226
remote site containing node sacogrjbr01 unreachable,IM3921202
remote site containing node sacogrjbr01 unreachable,IM3889784
node down,IM3901684
filesystem tmp exceed threshold,IM3944265
filesystem home exceed threshold,IM3893946
node down,IM3901999
node down,IM3905485
node down,IM3902202
interface down,IM3912093
interface down,IM3872603
interface down,IM3872558
node down,IM3927958
6as down triggered application app 6as prod trigger out transactions failed,IM3932409
6as down triggered application app 6as prod trigger out transactions failed,IM3932403
6as down triggered application app 6as prod trigger out transactions failed,IM3902361
6as down triggered application app 6as prod trigger out transactions failed,IM3869135
process tools jboss config pvmkc254 4wn production sales6 conf voilated threshold,IM3925827
process tools jboss config pvmkc254 4wn production sales4 conf voilated threshold,IM3925826
process tools jboss config pvmkc254 4wn production sales6 conf voilated threshold,IM3924105
process tools jboss config pvmkc254 4wn production sales4 conf voilated threshold,IM3924104
5in down triggered application app 5in prod trigger out transactions failed,IM3902370
process tools jboss config pvmkc254 4wn production sales2 conf voilated threshold,IM3870372
process tools jboss config pvmkc254 4wn production sales6 conf voilated threshold,IM3870371
process tools jboss config pvmkc254 4wn production sales4 conf voilated threshold,IM3870370
cos retail issue resolution,IM3942022
cos retail issue resolution,IM3938477
cos retail issue resolution,IM3888585
url http plswc161 corp sprint com ucmdb ui login page jsp failed load,IM3890267
6wn down triggered application app 6wn prod trigger out transactions failed,IM3936298
url http internalshop corp sprint com nasapp emt action emtlogin failed load,IM3932313
6wn down triggered application app 6wn prod trigger out transactions failed,IM3932258
6wn down triggered application app 6wn prod trigger out transactions failed,IM3916997
6wn down triggered application app 6wn prod trigger out transactions failed,IM3903556
url http internalshop corp sprint com nasapp emt action emtlogin failed load,IM3901570
6wn down triggered application app 6wn prod trigger out transactions failed,IM3888107
filesystem home exceed threshold,IM3936852
interface down,IM3895591
node down,IM3901960
node down,IM3902036
remote site containing node rtmawplab11 unreachable,IM3913879
remote site containing node rtnjsomab01 unreachable,IM3900006
remote site containing node rtnjsomab01 unreachable,IM3875874
remote site containing node rtnjsomab01 unreachable,IM3875264
node down,IM3925793
node down,IM3905505
free space disk drive less mb,IM3932237
free space disk drive less mb,IM3932214
free space disk drive less mb,IM3931784
free space disk drive less mb,IM3931440
free space disk drive less mb,IM3931365
free space disk drive less mb,IM3931354
free space disk drive less mb,IM3931340
free space disk drive less mb,IM3931306
free space disk drive less mb,IM3929804
free space disk drive less mb,IM3929775
free space disk drive less mb,IM3927965
free space disk drive less mb,IM3927921
free space disk drive less mb,IM3926871
free space disk drive less mb,IM3925438
free space disk drive less mb,IM3923984
free space disk drive less mb,IM3923960
free space disk drive less mb,IM3922415
free space disk drive less mb,IM3922384
free space disk drive less mb,IM3921717
free space disk drive less mb,IM3921688
free space disk drive less mb,IM3921398
free space disk drive less mb,IM3920967
free space disk drive less mb,IM3920961
free space disk drive less mb,IM3920866
free space disk drive less mb,IM3919645
free space disk drive less mb,IM3919303
free space disk drive less mb,IM3918346
free space disk drive less mb,IM3918296
free space disk drive less mb,IM3916854
free space disk drive less mb,IM3916824
free space disk drive less mb,IM3915270
free space disk drive less mb,IM3915244
free space disk drive less mb,IM3913834
free space disk drive less mb,IM3913833
free space disk drive less mb,IM3913816
free space disk drive less mb,IM3913217
free space disk drive less mb,IM3913198
free space disk drive less mb,IM3912935
free space disk drive less mb,IM3912555
free space disk drive less mb,IM3912484
free space disk drive less mb,IM3911199
free space disk drive less mb,IM3911175
free space disk drive less mb,IM3909891
free space disk drive less mb,IM3908369
free space disk drive less mb,IM3906931
free space disk drive less mb,IM3906923
free space disk drive less mb,IM3906882
free space disk drive less mb,IM3905384
free space disk drive less mb,IM3904860
free space disk drive less mb,IM3904144
free space disk drive less mb,IM3904096
free space disk drive less mb,IM3903652
free space disk drive less mb,IM3901409
free space disk drive less mb,IM3899958
free space disk drive less mb,IM3899923
free space disk drive less mb,IM3898535
free space disk drive less mb,IM3897423
free space disk drive less mb,IM3897189
free space disk drive less mb,IM3897184
free space disk drive less mb,IM3897162
free space disk drive less mb,IM3895525
free space disk drive less mb,IM3894856
free space disk drive less mb,IM3894834
free space disk drive less mb,IM3894016
free space disk drive less mb,IM3893533
free space disk drive less mb,IM3892565
free space disk drive less mb,IM3892536
free space disk drive less mb,IM3891131
free space disk drive less mb,IM3891096
free space disk drive less mb,IM3889555
free space disk drive less mb,IM3889503
free space disk drive less mb,IM3887838
free space disk drive less mb,IM3887793
free space disk drive less mb,IM3886851
free space disk drive less mb,IM3886819
free space disk drive less mb,IM3886215
free space disk drive less mb,IM3885444
free space disk drive less mb,IM3883873
free space disk drive less mb,IM3882271
free space disk drive less mb,IM3881879
free space disk drive less mb,IM3880849
free space disk drive less mb,IM3880827
free space disk drive less mb,IM3879205
free space disk drive less mb,IM3879174
free space disk drive less mb,IM3877627
free space disk drive less mb,IM3876738
free space disk drive less mb,IM3876720
free space disk drive less mb,IM3875948
free space disk drive less mb,IM3874585
free space disk drive less mb,IM3873147
free space disk drive less mb,IM3873089
free space disk drive less mb,IM3871659
free space disk drive less mb,IM3871621
free space disk drive less mb,IM3870311
free space disk drive less mb,IM3870274
free space disk drive less mb,IM3869377
node down,IM3876135
node down,IM3901611
node down,IM3902069
node down,IM3902223
node down,IM3901947
remote site containing node swncdrhbb01 unreachable,IM3918383
paging file total usage exceeds threshold,IM3939090
paging file total usage exceeds threshold,IM3918164
paging file total usage exceeds threshold,IM3918138
paging file total usage exceeds threshold,IM3918093
paging file total usage exceeds threshold,IM3916871
paging file total usage exceeds threshold,IM3914035
paging file total usage exceeds threshold,IM3905666
paging file total usage exceeds threshold,IM3905490
paging file total usage exceeds threshold,IM3905465
paging file total usage exceeds threshold,IM3905136
paging file total usage exceeds threshold,IM3905038
paging file total usage exceeds threshold,IM3905013
paging file total usage exceeds threshold,IM3905005
paging file total usage exceeds threshold,IM3905001
paging file total usage exceeds threshold,IM3902697
paging file total usage exceeds threshold,IM3901519
paging file total usage exceeds threshold,IM3901412
paging file total usage exceeds threshold,IM3898920
paging file total usage exceeds threshold,IM3895358
paging file total usage exceeds threshold,IM3894098
paging file total usage exceeds threshold,IM3894074
paging file total usage exceeds threshold,IM3893985
free space disk drive less mb,IM3904789
free space disk drive less mb,IM3901329
free space disk drive less mb,IM3899873
free space disk drive less mb,IM3897111
free space disk drive less mb,IM3894788
free space disk drive less mb,IM3893970
free space disk drive less mb,IM3892459
free space disk drive less mb,IM3889452
free space disk drive less mb,IM3887740
free space disk drive less mb,IM3886174
free space disk drive less mb,IM3885384
free space disk drive less mb,IM3882211
free space disk drive less mb,IM3880769
free space disk drive less mb,IM3879103
free space disk drive less mb,IM3877569
free space disk drive less mb,IM3876692
free space disk drive less mb,IM3874481
free space disk drive less mb,IM3871551
node down,IM3901785
filesystem var exceed threshold,IM3922109
filesystem var exceed threshold,IM3921768
node down,IM3873195
node down,IM3870332
node down,IM3901898
filesystem tmp exceed threshold,IM3924821
filesystem tmp exceed threshold,IM3924593
filesystem tmp exceed threshold,IM3923742
filesystem tmp exceed threshold,IM3923232
filesystem home exceed threshold,IM3909469
filesystem tmp exceed threshold,IM3889737
node down,IM3921799
node down,IM3920033
remote site containing node saohfarar01 unreachable,IM3908743
node down,IM3909024
node down,IM3908803
node down,IM3908701
node down,IM3878166
node down,IM3908771
node down,IM3908708
node down,IM3888145
node down,IM3888120
node down,IM3887882
remote site containing node sanynycsr01 unreachable,IM3921080
remote site containing node sanynycsr01 unreachable,IM3908802
remote site containing node sanynycsr01 unreachable,IM3908737
node down,IM3888138
node down,IM3887881
node down,IM3913365
node down,IM3879486
remote site containing node savamanbr01 unreachable,IM3898653
remote site containing node satxausir01 unreachable,IM3942172
remote site containing node satxausir01 unreachable,IM3942128
remote site containing node satxausir01 unreachable,IM3942014
remote site containing node satxausir01 unreachable,IM3935188
remote site containing node satxausir01 unreachable,IM3910105
remote site containing node satxausir01 unreachable,IM3897231
node down,IM3919511
node down,IM3898669
node down,IM3892647
node down,IM3928322
node down,IM3893836
paging file total usage exceeds threshold,IM3870086
node down,IM3871514
node down,IM3925636
remote site containing node sanvskycr01 unreachable,IM3918309
remote site containing node sanvskycr01 unreachable,IM3918237
remote site containing node sanvskycr01 unreachable,IM3918173
remote site containing node sanvskycr01 unreachable,IM3898470
remote site containing node sanvskycr01 unreachable,IM3897282
node down,IM3891281
node down,IM3925627
interface down,IM3891141
node down,IM3918433
node down,IM3892685
node down,IM3902204
node down,IM3929918
remote site containing node samdgaicr01 unreachable,IM3936333
remote site containing node samdgaicr01 unreachable,IM3900743
node down,IM3925531
node down,IM3925534
node down,IM3923876
node down,IM3919586
node down,IM3919007
node down,IM3912627
node down,IM3908175
node down,IM3904654
node down,IM3893230
node down,IM3891766
node down,IM3887230
node down,IM3882050
node down,IM3880029
node down,IM3879690
node down,IM3876423
node down,IM3876056
node down,IM3876041
node down,IM3876032
node down,IM3876019
node down,IM3875982
node down,IM3875964
drive free space mb mb violated threshold mb,IM3928470
drive free space mb mb violated threshold mb,IM3869492
filesystem home exceed threshold,IM3945094
node down,IM3901949
node down,IM3902335
node down,IM3901944
node down,IM3901743
node down,IM3902253
service kiwi syslog server state running,IM3939123
service kiwi syslog server state running,IM3918927
service kiwi syslog server state running,IM3907214
primary nnm server cluster,IM3906890
primary nnm server cluster,IM3906881
primary nnm server cluster,IM3906841
secondary nnm server cluster,IM3905242
secondary nnm server cluster,IM3904170
service kiwi syslog server state running,IM3901466
service kiwi syslog server state running,IM3894900
primary nnm server cluster,IM3892575
service kiwi syslog server state running,IM3883827
service kiwi syslog server state running,IM3883735
service kiwi syslog server state running,IM3870469
url https itam corp sprint com assetmanager failed load,IM3926396
file prod e 8ts application connect ci scenarios eventin logs eln2en log modified last minutes,IM3904917
url https itam corp sprint com assetmanager failed load,IM3900700
url https itam corp sprint com assetmanager failed load,IM3900527
url https itam corp sprint com assetmanager failed load,IM3900509
url https itam corp sprint com assetmanager failed load,IM3900499
file prod e 8ts application connect ci scenarios eventin logs eln2en log modified last minutes,IM3894063
file prod e 8ts application connect ci scenarios barcode logs am2bcm log modified last minutes,IM3887914
file prod e 8ts application connect ci scenarios eventin logs eln2en log modified last minutes,IM3887872
file prod e 8ts application connect ci scenarios apsn2 log prod edi slv received log modified last hours,IM3884314
node down,IM3901769
access point down,IM3895171
node down,IM3901971
paging file total usage exceeds threshold,IM3870445
paging file total usage exceeds threshold,IM3870427
paging file total usage exceeds threshold,IM3870402
paging file total usage exceeds threshold,IM3870375
paging file total usage exceeds threshold,IM3870119
paging file total usage exceeds threshold,IM3870094
paging file total usage exceeds threshold,IM3869947
paging file total usage exceeds threshold,IM3869902
paging file total usage exceeds threshold,IM3869751
paging file total usage exceeds threshold,IM3869571
paging file total usage exceeds threshold,IM3869543
paging file total usage exceeds threshold,IM3869527
paging file total usage exceeds threshold,IM3869509
paging file total usage exceeds threshold,IM3869499
paging file total usage exceeds threshold,IM3869485
paging file total usage exceeds threshold,IM3869471
paging file total usage exceeds threshold,IM3869466
paging file total usage exceeds threshold,IM3869458
free space disk drive less mb,IM3944437
free space disk drive less mb,IM3943932
free space disk drive less mb,IM3942307
free space disk drive less mb,IM3941509
free space disk drive less mb,IM3940714
free space disk drive less mb,IM3939223
free space disk drive less mb,IM3937799
free space disk drive less mb,IM3936265
free space disk drive less mb,IM3934560
free space disk drive less mb,IM3931356
free space disk drive less mb,IM3922139
node down,IM3906752
node down,IM3898561
node down,IM3913245
remote site containing node samafrmdr01 unreachable,IM3909950
free space disk drive less mb,IM3945289
free space disk drive less mb,IM3944816
free space disk drive less mb,IM3944425
free space disk drive less mb,IM3943839
free space disk drive less mb,IM3943570
free space disk drive less mb,IM3942020
free space disk drive less mb,IM3941843
free space disk drive less mb,IM3941098
free space disk drive less mb,IM3940065
free space disk drive less mb,IM3939002
free space disk drive less mb,IM3938557
free space disk drive less mb,IM3937504
free space disk drive less mb,IM3937125
free space disk drive less mb,IM3935351
free space disk drive less mb,IM3934997
free space disk drive less mb,IM3934554
free space disk drive less mb,IM3934028
free space disk drive less mb,IM3932952
free space disk drive less mb,IM3932779
free space disk drive less mb,IM3932082
free space disk drive less mb,IM3931837
free space disk drive less mb,IM3930743
free space disk drive less mb,IM3923779
free space disk drive less mb,IM3913066
free space disk drive less mb,IM3904708
free space disk drive less mb,IM3901198
free space disk drive less mb,IM3899791
free space disk drive less mb,IM3898309
free space disk drive less mb,IM3897021
free space disk drive less mb,IM3895400
free space disk drive less mb,IM3894699
free space disk drive less mb,IM3893870
free space disk drive less mb,IM3892278
free space disk drive less mb,IM3890850
free space disk drive less mb,IM3887646
free space disk drive less mb,IM3886739
free space disk drive less mb,IM3886101
free space disk drive less mb,IM3883721
free space disk drive less mb,IM3882108
free space disk drive less mb,IM3880638
free space disk drive less mb,IM3879006
free space disk drive less mb,IM3877497
free space disk drive less mb,IM3876617
free space disk drive less mb,IM3875788
free space disk drive less mb,IM3871421
free space disk drive less mb,IM3870154
free space disk drive less mb,IM3869210
remote site containing node swpagtrab01 unreachable,IM3939173
remote site containing node swpagtrab01 unreachable,IM3939167
remote site containing node swpagtrab01 unreachable,IM3939163
remote site containing node swpagtrab01 unreachable,IM3936356
remote site containing node swpagtrab01 unreachable,IM3901060
remote site containing node swpagtrab01 unreachable,IM3891229
remote site containing node swpagtrab01 unreachable,IM3891220
node down,IM3901946
node down,IM3901682
node down,IM3902026
filesystem var exceed threshold,IM3936445
filesystem var exceed threshold,IM3936140
filesystem var exceed threshold,IM3936139
filesystem var exceed threshold,IM3935579
node down,IM3901921
node down,IM3901693
node down,IM3902027
free space disk drive less mb,IM3925387
free space disk drive less mb,IM3904784
free space disk drive less mb,IM3899872
node down,IM3870852
node down,IM3901918
filesystem tmp exceed threshold,IM3912590
node down,IM3902299
filesystem var exceed threshold,IM3905654
process name ntpd owner ntp status minor condition currently running processes configured threshold,IM3922052
process name crond owner root status minor condition currently running processes configured threshold,IM3922051
filesystem var exceed threshold,IM3922046
remote site containing node swflsarib11 unreachable,IM3943999
remote site containing node swflsarib11 unreachable,IM3887966
remote site containing node swflsarib11 unreachable,IM3886568
remote site containing node sacafrsqr01 unreachable,IM3925638
remote site containing node sacafrsqr01 unreachable,IM3908293
node down,IM3902054
remote site containing node sainindwr01 unreachable,IM3895612
remote site containing node sainindwr01 unreachable,IM3877708
remote site containing node sacarcucr01 unreachable,IM3939360
remote site containing node sacarcucr01 unreachable,IM3939219
remote site containing node sacarcucr01 unreachable,IM3939196
remote site containing node sacarcucr01 unreachable,IM3912145
remote site containing node sacarcucr01 unreachable,IM3911353
node down,IM3901975
filesystem var log exceed threshold,IM3921912
filesystem var log exceed threshold,IM3921058
swap utilization average 30m,IM3897434
filesystem var log exceed threshold,IM3894005
node down,IM3901642
remote site containing node samirosbr01 unreachable,IM3941613
remote site containing node samirosbr01 unreachable,IM3941578
remote site containing node samirosbr01 unreachable,IM3888985
node down,IM3934688
node down,IM3904461
node down,IM3899961
node down,IM3894720
node down,IM3882565
node down,IM3881979
interface down,IM3897417
interface down,IM3897319
interface down,IM3894989
interface down,IM3894928
interface down,IM3889164
interface down,IM3886444
interface down,IM3886292
interface down,IM3886152
interface down,IM3882320
interface down,IM3880780
interface down,IM3877076
interface down,IM3874629
interface down,IM3869467
interface down,IM3869449
node down,IM3927704
node down,IM3927609
node down,IM3916747
node down,IM3880861
node down,IM3897465
remote site containing node sawioshar01 unreachable,IM3908760
remote site containing node sawioshar01 unreachable,IM3908717
node down,IM3925595
remote site containing node samideaar01 unreachable,IM3925848
node down,IM3895240
node connection down,IM3904401
remote site containing node samocrcbr01 unreachable,IM3943893
remote site containing node samocrcbr01 unreachable,IM3925565
remote site containing node samocrcbr01 unreachable,IM3873216
node down,IM3939447
node down,IM3923509
node down,IM3922036
remote site containing node sacacover01 unreachable,IM3891709
node down,IM3908963
node down,IM3908739
node down,IM3899632
node down,IM3925589
node down,IM3908832
node down,IM3908689
node down,IM3928208
remote site containing node sakyloier01 unreachable,IM3930476
remote site containing node sakyloier01 unreachable,IM3930451
remote site containing node sakyloier01 unreachable,IM3925333
remote site containing node sakyloier01 unreachable,IM3921809
remote site containing node sakyloier01 unreachable,IM3919772
remote site containing node sakyloier01 unreachable,IM3904119
remote site containing node sakyloier01 unreachable,IM3874170
node down,IM3925550
network associates mcshield service running,IM3871552
please investigate,IM3871552
remote site containing node sacacabar01 unreachable,IM3922189
remote site containing node saminover01 unreachable,IM3908740
remote site containing node saminover01 unreachable,IM3885642
interface down,IM3878337
node down,IM3892728
node down,IM3877866
node down,IM3877831
node down,IM3877059
node down,IM3879270
node down,IM3901892
node down,IM3901866
node down,IM3901776
node down,IM3902156
node down,IM3902331
node down,IM3901926
node down,IM3905107
remote site containing node saflorazr01 unreachable,IM3894549
node down,IM3901666
node down,IM3870572
node down,IM3896824
access point down,IM3888183
filesystem tmp exceed threshold,IM3941456
filesystem tmp exceed threshold,IM3938606
filesystem tmp exceed threshold,IM3938510
filesystem tmp exceed threshold,IM3938476
filesystem tmp exceed threshold,IM3938405
filesystem tmp exceed threshold,IM3938379
filesystem tmp exceed threshold,IM3938325
filesystem tmp exceed threshold,IM3938304
filesystem tmp exceed threshold,IM3938048
filesystem tmp exceed threshold,IM3903124
filesystem tmp exceed threshold,IM3899753
filesystem tmp exceed threshold,IM3899746
filesystem home exceed threshold,IM3892973
filesystem tmp exceed threshold,IM3885470
filesystem tmp exceed threshold,IM3882955
filesystem tmp exceed threshold,IM3881715
filesystem tmp exceed threshold,IM3880384
filesystem home exceed threshold,IM3871264
filesystem tmp exceed threshold,IM3870419
filesystem tmp exceed threshold,IM3869961
filesystem tmp exceed threshold,IM3945211
filesystem tmp exceed threshold,IM3943495
filesystem tmp exceed threshold,IM3941993
filesystem tmp exceed threshold,IM3941288
filesystem tmp exceed threshold,IM3940385
filesystem tmp exceed threshold,IM3940293
filesystem tmp exceed threshold,IM3938911
filesystem tmp exceed threshold,IM3937439
filesystem tmp exceed threshold,IM3936256
filesystem tmp exceed threshold,IM3935808
filesystem tmp exceed threshold,IM3934328
filesystem tmp exceed threshold,IM3932922
filesystem tmp exceed threshold,IM3932026
filesystem tmp exceed threshold,IM3931073
filesystem tmp exceed threshold,IM3929460
filesystem tmp exceed threshold,IM3927353
filesystem tmp exceed threshold,IM3925750
filesystem tmp exceed threshold,IM3925231
filesystem tmp exceed threshold,IM3923714
filesystem tmp exceed threshold,IM3922228
filesystem tmp exceed threshold,IM3921533
filesystem tmp exceed threshold,IM3920668
filesystem tmp exceed threshold,IM3919456
filesystem tmp exceed threshold,IM3918075
filesystem tmp exceed threshold,IM3917084
filesystem tmp exceed threshold,IM3916931
filesystem tmp exceed threshold,IM3912298
filesystem tmp exceed threshold,IM3909669
filesystem tmp exceed threshold,IM3898667
filesystem tmp exceed threshold,IM3895357
filesystem tmp exceed threshold,IM3892213
filesystem tmp exceed threshold,IM3889642
filesystem tmp exceed threshold,IM3885212
filesystem tmp exceed threshold,IM3880918
filesystem tmp exceed threshold,IM3871718
filesystem tmp exceed threshold,IM3870234
filesystem tmp exceed threshold,IM3868683
node down,IM3942713
filesystem ldap slapd ned bak exceeded minor threshold,IM3877671
node down,IM3930247
filesystem home exceed threshold,IM3871910
node down,IM3923223
sfwdbs ds nol prod dba critical mon instance status plss5005 ndwp1012,IM3930235
paging file total usage exceeds threshold,IM3918059
paging file total usage exceeds threshold,IM3913226
paging file total usage exceeds threshold,IM3912499
remote site containing node rtgarosbb01 unreachable,IM3913869
drive free space mb mb violated threshold mb,IM3905618
drive free space mb mb violated threshold mb,IM3905041
drive free space mb mb violated threshold mb,IM3905024
drive free space mb mb violated threshold mb,IM3904967
drive free space mb mb violated threshold mb,IM3904958
drive free space mb mb violated threshold mb,IM3904949
drive free space mb mb violated threshold mb,IM3904278
drive free space mb mb violated threshold mb,IM3904262
drive free space mb mb violated threshold mb,IM3904240
drive free space mb violated threshold mb,IM3902670
drive free space mb mb violated threshold mb,IM3902638
drive free space mb violated threshold mb,IM3900278
drive free space mb mb violated threshold mb,IM3900241
drive free space mb mb violated threshold mb,IM3898875
drive free space kb mb violated threshold mb,IM3895047
drive free space mb mb violated threshold mb,IM3895033
drive free space mb violated threshold mb,IM3894294
drive free space mb mb violated threshold mb,IM3894279
drive free space mb mb violated threshold mb,IM3892947
drive free space mb violated threshold mb,IM3882644
drive free space mb mb violated threshold mb,IM3882607
drive free space mb mb violated threshold mb,IM3881235
drive free space mb mb violated threshold mb,IM3877734
drive free space mb mb violated threshold mb,IM3876882
drive free space mb mb violated threshold mb,IM3876838
drive free space mb violated threshold mb,IM3876153
drive free space mb violated threshold mb,IM3876145
drive free space mb mb violated threshold mb,IM3876129
drive free space mb mb violated threshold mb,IM3876125
drive free space mb mb violated threshold mb,IM3876116
drive free space mb mb violated threshold mb,IM3876114
drive free space mb mb violated threshold mb,IM3873448
drive free space mb violated threshold mb,IM3871979
drive free space mb mb violated threshold mb,IM3871883
drive free space mb mb violated threshold mb,IM3869551
drive free space mb mb violated threshold mb,IM3869057
drive free space mb mb violated threshold mb,IM3869038
drive free space mb violated threshold mb,IM3868947
drive free space mb mb violated threshold mb,IM3868929
drive free space mb mb violated threshold mb,IM3868922
drive free space mb mb violated threshold mb,IM3868875
drive free space mb mb violated threshold mb,IM3868808
filesystem exceed threshold,IM3926596
node down,IM3902157
svm metadevice problem found please run metastat correct issues plssa259,IM3941941
url http w911wvip nmcc sprintspectrum com e911 simplehome failed load,IM3940449
url http w911wvip nmcc sprintspectrum com e911 simplehome failed load,IM3940393
remote site containing node rtmdbltab11 unreachable,IM3899999
node down,IM3902052
node down,IM3901707
node down,IM3902220
node down,IM3901985
filesystem test2 khk exceeded major threshold,IM3878339
paging file total usage exceeds threshold,IM3940685
node down,IM3902344
free space disk drive less mb,IM3944558
free space disk drive less mb,IM3944447
free space disk drive less mb,IM3943856
free space disk drive less mb,IM3942840
free space disk drive less mb,IM3941745
free space disk drive less mb,IM3940994
free space disk drive less mb,IM3939802
free space disk drive less mb,IM3938332
free space disk drive less mb,IM3937276
free space disk drive less mb,IM3936917
free space disk drive less mb,IM3935130
free space disk drive less mb,IM3934562
free space disk drive less mb,IM3933826
free space disk drive less mb,IM3932688
free space disk drive less mb,IM3931903
free space disk drive less mb,IM3931717
free space disk drive less mb,IM3931355
free space disk drive less mb,IM3930679
free space disk drive less mb,IM3930511
free space disk drive less mb,IM3928878
free space disk drive less mb,IM3926600
free space disk drive less mb,IM3924663
free space disk drive less mb,IM3923978
free space disk drive less mb,IM3923139
free space disk drive less mb,IM3922011
free space disk drive less mb,IM3921208
free space disk drive less mb,IM3920190
free space disk drive less mb,IM3919003
free space disk drive less mb,IM3917491
free space disk drive less mb,IM3915944
free space disk drive less mb,IM3915264
free space disk drive less mb,IM3914379
free space disk drive less mb,IM3913488
free space disk drive less mb,IM3912807
free space disk drive less mb,IM3911773
free space disk drive less mb,IM3910478
free space disk drive less mb,IM3909148
free space disk drive less mb,IM3907542
free space disk drive less mb,IM3906917
free space disk drive less mb,IM3906122
free space disk drive less mb,IM3905090
free space disk drive less mb,IM3904394
free space disk drive less mb,IM3903357
free space disk drive less mb,IM3900602
free space disk drive less mb,IM3899191
free space disk drive less mb,IM3897773
free space disk drive less mb,IM3897419
free space disk drive less mb,IM3897180
free space disk drive less mb,IM3896202
free space disk drive less mb,IM3895156
free space disk drive less mb,IM3894383
free space disk drive less mb,IM3893237
free space disk drive less mb,IM3891686
free space disk drive less mb,IM3890187
free space disk drive less mb,IM3888670
free space disk drive less mb,IM3887205
free space disk drive less mb,IM3886505
free space disk drive less mb,IM3885751
free space disk drive less mb,IM3884734
free space disk drive less mb,IM3882970
free space disk drive less mb,IM3881521
free space disk drive less mb,IM3879917
free space disk drive less mb,IM3879197
free space disk drive less mb,IM3878290
free space disk drive less mb,IM3877190
free space disk drive less mb,IM3876280
free space disk drive less mb,IM3875062
free space disk drive less mb,IM3873750
free space disk drive less mb,IM3872257
free space disk drive less mb,IM3870838
free space disk drive less mb,IM3869684
free space disk drive less mb,IM3868927
node down,IM3902176
power supply nxmolesbx31 malfunctioning,IM3940809
power supply nxmolesbx31 malfunctioning,IM3939493
free space disk drive less mb,IM3875637
free space disk drive less mb,IM3870275
node down,IM3898173
node down,IM3873412
node down,IM3873381
node down,IM3873375
node down,IM3873322
node down,IM3873256
node down,IM3873242
node down,IM3873240
node down,IM3873097
node down,IM3873059
node down,IM3873023
node down,IM3872998
node down,IM3872462
node down,IM3925630
node down,IM3869397
node down,IM3902102
process name ntpd owner ntp status minor condition currently running processes configured threshold,IM3897639
node down,IM3902328
remote site containing node saflbrnar01 unreachable,IM3916865
remote site containing node saflbrnar01 unreachable,IM3915962
remote site containing node saflbrnar01 unreachable,IM3915317
remote site containing node saflbrnar01 unreachable,IM3873162
remote site containing node saflbrnar01 unreachable,IM3871256
interface down,IM3931613
node down,IM3902285
node down,IM3901897
remote site containing node sacachvdr01 unreachable,IM3893828
node down,IM3937831
node down,IM3937817
node down,IM3935987
node down,IM3934295
node down,IM3930686
node down,IM3925624
node down,IM3925052
node down,IM3924321
remote site containing node sanvrenkr01 unreachable,IM3909534
remote site containing node sanvrenkr01 unreachable,IM3909441
remote site containing node sanvrenkr01 unreachable,IM3899327
remote site containing node sanvrenkr01 unreachable,IM3884272
remote site containing node sanvrenkr01 unreachable,IM3877591
remote site containing node sanvrenkr01 unreachable,IM3877557
remote site containing node sanvrenkr01 unreachable,IM3877320
remote site containing node sanvrenkr01 unreachable,IM3872509
remote site containing node sanvrenkr01 unreachable,IM3869220
node down,IM3929833
node down,IM3901605
remote site containing node sacaclvdr01 unreachable,IM3925699
remote site containing node sancchtcr01 unreachable,IM3931516
remote site containing node sancchtcr01 unreachable,IM3929928
remote site containing node sancchtcr01 unreachable,IM3915311
remote site containing node sancchtcr01 unreachable,IM3905682
remote site containing node sancchtcr01 unreachable,IM3892729
remote site containing node sancchtcr01 unreachable,IM3876733
remote site containing node sancchtcr01 unreachable,IM3874792
remote site containing node sancchtcr01 unreachable,IM3871972
remote site containing node satxhsobr01 unreachable,IM3925562
remote site containing node satxhsobr01 unreachable,IM3890139
remote site containing node satxhsobr01 unreachable,IM3885752
node down,IM3936341
node down,IM3917313
node down,IM3906028
node down,IM3885485
node down,IM3883697
node down,IM3925684
node down,IM3905610
remote site containing node sacalanxr01 unreachable,IM3925706
remote site containing node sacalanxr01 unreachable,IM3869476
remote site containing node sacolakcr01 unreachable,IM3936262
node down,IM3926909
node down,IM3889625
remote site containing node samokitar01 unreachable,IM3936271
remote site containing node saflmimnr01 unreachable,IM3889506
remote site containing node saflmimnr01 unreachable,IM3876762
remote site containing node saflmimnr01 unreachable,IM3876746
remote site containing node saazsurar01 unreachable,IM3897284
remote site containing node sapawasar01 unreachable,IM3936351
node down,IM3909998
node down,IM3923731
node down,IM3944006
node down,IM3924144
node down,IM3921054
node down,IM3881085
node down,IM3879267
remote site containing node sagalithr01 unreachable,IM3909377
node down,IM3936292
node down,IM3910301
remote site containing node sacapdlar01 unreachable,IM3931496
node down,IM3910094
remote site containing node sacapdlar01 unreachable,IM3875511
remote site containing node sancgrbkr01 unreachable,IM3892731
remote site containing node sancgrbkr01 unreachable,IM3882300
remote site containing node sancgrbkr01 unreachable,IM3879514
node down,IM3880584
node down,IM3901884
node down,IM3941900
node down,IM3941800
node down,IM3941786
node down,IM3941758
node down,IM3941653
node down,IM3941612
node down,IM3925602
node down,IM3924931
node down,IM3924845
node down,IM3924248
node down,IM3924236
node down,IM3924210
node down,IM3924187
node down,IM3924160
node down,IM3924139
node down,IM3876743
remote site containing node sasccmbtr01 unreachable,IM3943413
remote site containing node sasccmbtr01 unreachable,IM3919806
remote site containing node sasccmbtr01 unreachable,IM3905323
remote site containing node sasccmbtr01 unreachable,IM3882309
remote site containing node sasccmbtr01 unreachable,IM3870113
paging file total usage exceeds threshold,IM3872502
paging file total usage exceeds threshold,IM3872156
paging file total usage exceeds threshold,IM3871827
paging file total usage exceeds threshold,IM3871763
paging file total usage exceeds threshold,IM3871752
paging file total usage exceeds threshold,IM3871737
paging file total usage exceeds threshold,IM3871711
paging file total usage exceeds threshold,IM3871681
paging file total usage exceeds threshold,IM3871675
remote site containing node sawaeveer01 unreachable,IM3925647
node down,IM3901804
filesystem opt exceed threshold,IM3925895
system utilization exceeded,IM3935222
node down,IM3901593
node down,IM3901618
node down,IM3901963
node down,IM3901906
node down,IM3901989
node down,IM3901819
node down,IM3902270
node down,IM3879776
node down,IM3901887
node down,IM3902050
node down,IM3901931
node down,IM3873433
remote site containing node saohlacar01 unreachable,IM3908738
remote site containing node saohwetdr01 unreachable,IM3916885
node down,IM3870573
remote site containing node samasthbr01 unreachable,IM3941495
remote site containing node samasthbr01 unreachable,IM3922997
access point down,IM3886857
node down,IM3902267
process name sshd owner root status major condition currently running processes configured threshold,IM3941794
node down,IM3925476
node down,IM3901890
drive free space mb mb violated threshold mb,IM3915655
vmware tools service running,IM3911205
remote site containing node rtalbirfb01 unreachable,IM3922518
filesystem home exceed threshold,IM3904846
filesystem home exceed threshold,IM3904717
node down,IM3901945
node down,IM3922686
node down,IM3922647
mountpoints become read plsla543,IM3922489
node down,IM3892087
node down,IM3901678
node down,IM3902037
filesystem tmp exceed threshold,IM3938640
node down,IM3901723
filesystem var exceed threshold,IM3929980
filesystem var exceed threshold,IM3921852
node down,IM3934654
access point down,IM3895267
node down,IM3901838
node down,IM3901935
mountpoints become read plsle144,IM3871561
remote site containing node sancchrxr01 unreachable,IM3916860
remote site containing node sancchrxr01 unreachable,IM3891403
remote site containing node sancchrxr01 unreachable,IM3882845
node down,IM3922884
node down,IM3922671
node down,IM3922528
node down,IM3922506
node down,IM3922456
node down,IM3922430
node down,IM3922325
node down,IM3922277
node down,IM3901934
node down,IM3902038
filesystem home exceed threshold,IM3940074
filesystem tmp exceed threshold,IM3933613
filesystem home exceed threshold,IM3933605
filesystem tmp exceed threshold,IM3916105
filesystem tmp exceed threshold,IM3915276
filesystem tmp exceed threshold,IM3885028
filesystem home exceed threshold,IM3890177
node down,IM3871224
node down,IM3901623
remote site containing node saksoprar01 unreachable,IM3937809
node down,IM3901599
remote site containing node saksjnczr01 unreachable,IM3919757
node down,IM3902014
node down,IM3908706
node down,IM3909984
remote site containing node satxtwlar01 unreachable,IM3929840
remote site containing node sautsgear01 unreachable,IM3924154
remote site containing node saazgilcr01 unreachable,IM3880605
node down,IM3931333
remote site containing node sawalyncr01 unreachable,IM3900937
node down,IM3899683
paging file total usage exceeds threshold,IM3870228
paging file total usage exceeds threshold,IM3870205
paging file total usage exceeds threshold,IM3870166
node down,IM3918362
node down,IM3925516
node down,IM3892946
remote site containing node sacachnar01 unreachable,IM3943400
remote site containing node sacachnar01 unreachable,IM3939327
remote site containing node sacachnar01 unreachable,IM3928571
remote site containing node sacachnar01 unreachable,IM3925694
remote site containing node sapaphlyr01 unreachable,IM3892021
remote site containing node sautafoar01 unreachable,IM3925698
remote site containing node sautafoar01 unreachable,IM3891336
remote site containing node sautafoar01 unreachable,IM3891326
remote site containing node sautafoar01 unreachable,IM3891309
remote site containing node sautafoar01 unreachable,IM3891292
node down,IM3891280
remote site containing node sautafoar01 unreachable,IM3868680
remote site containing node sacathoar01 unreachable,IM3934107
remote site containing node sacathoar01 unreachable,IM3892905
remote site containing node sacathoar01 unreachable,IM3874520
remote site containing node samacamcr01 unreachable,IM3905149
node down,IM3902252
node down,IM3925505
remote site containing node savaalear01 unreachable,IM3922401
remote site containing node sagaslvbr01 unreachable,IM3898490
remote site containing node sagaslvbr01 unreachable,IM3894233
node down,IM3876769
node down,IM3876749
remote site containing node sakswchqr01 unreachable,IM3937777
remote site containing node sakswchqr01 unreachable,IM3933046
node down,IM3925612
node down,IM3923859
node down,IM3919585
node down,IM3919009
node down,IM3912628
node down,IM3908180
node down,IM3893238
node down,IM3880022
node down,IM3879735
node down,IM3876061
node down,IM3876057
node down,IM3876047
node down,IM3876033
node down,IM3876020
node down,IM3875984
node down,IM3875966
remote site containing node satxdenbr01 unreachable,IM3943469
remote site containing node samdrocar01 unreachable,IM3945141
remote site containing node samdrocar01 unreachable,IM3945061
remote site containing node samdrocar01 unreachable,IM3936350
remote site containing node savavnafr01 unreachable,IM3918675
remote site containing node cncasrmdb01 unreachable,IM3896714
remote site containing node sailgevbr01 unreachable,IM3918698
remote site containing node sailgevbr01 unreachable,IM3900037
remote site containing node sailgevbr01 unreachable,IM3873575
remote site containing node sailgevbr01 unreachable,IM3873540
node down,IM3869157
node down,IM3869162
filesystem home exceed threshold,IM3939226
filesystem home exceed threshold,IM3939187
filesystem home exceed threshold,IM3939181
filesystem home exceed threshold,IM3938641
filesystem home exceed threshold,IM3938457
filesystem home exceed threshold,IM3937975
filesystem home exceed threshold,IM3937880
filesystem home exceed threshold,IM3937856
filesystem home exceed threshold,IM3937849
filesystem home exceed threshold,IM3937827
filesystem home exceed threshold,IM3937127
filesystem home exceed threshold,IM3936422
filesystem home exceed threshold,IM3936406
filesystem home exceed threshold,IM3936403
filesystem home exceed threshold,IM3936395
filesystem home exceed threshold,IM3936386
filesystem home exceed threshold,IM3936379
filesystem home exceed threshold,IM3936373
filesystem home exceed threshold,IM3936369
filesystem home exceed threshold,IM3936320
filesystem home exceed threshold,IM3936312
filesystem home exceed threshold,IM3936299
filesystem home exceed threshold,IM3936285
filesystem home exceed threshold,IM3936259
filesystem home exceed threshold,IM3935316
filesystem home exceed threshold,IM3935093
filesystem home exceed threshold,IM3934829
filesystem home exceed threshold,IM3934812
filesystem home exceed threshold,IM3934753
filesystem home exceed threshold,IM3933419
filesystem home exceed threshold,IM3933308
filesystem home exceed threshold,IM3933280
filesystem home exceed threshold,IM3932474
filesystem home exceed threshold,IM3917074
filesystem home exceed threshold,IM3900209
filesystem home exceed threshold,IM3873476
node down,IM3902043
node down,IM3902098
node down,IM3902326
node down,IM3901994
node down,IM3902047
node down,IM3905108
node down,IM3901767
node down,IM3925680
remote site containing node satxiviar01 unreachable,IM3908274
node down,IM3908240
access point down,IM3923979
node down,IM3925597
remote site containing node satxconer01 unreachable,IM3909701
remote site containing node satxconer01 unreachable,IM3873408
process name crond owner root status minor condition currently running processes configured threshold,IM3928186
node down,IM3928182
node down,IM3902004
remote site containing node saohnewbr01 unreachable,IM3937804
process bin sh production q1s interwoven applicationcontainer bin iw jboss run sh voilated threshold,IM3932452
process production q1s interwoven foundationlibraries jdk bin java voilated threshold,IM3932451
process production q1s interwoven teamsite bin iwproxy voilated threshold,IM3932450
process production q1s interwoven teamsite iw webd bin iwwebd voilated threshold,IM3932449
node down,IM3901746
node down,IM3902073
paging file total usage exceeds threshold,IM3876001
node down,IM3901948
free space disk drive less mb,IM3945336
free space disk drive less mb,IM3943609
free space disk drive less mb,IM3941359
free space disk drive less mb,IM3940482
free space disk drive less mb,IM3937539
free space disk drive less mb,IM3935935
free space disk drive less mb,IM3934557
free space disk drive less mb,IM3932972
free space disk drive less mb,IM3932111
free space disk drive less mb,IM3931344
free space disk drive less mb,IM3929626
free space disk drive less mb,IM3927570
free space disk drive less mb,IM3922282
free space disk drive less mb,IM3919535
free space disk drive less mb,IM3915080
free space disk drive less mb,IM3913724
free space disk drive less mb,IM3912370
free space disk drive less mb,IM3911066
free space disk drive less mb,IM3910858
free space disk drive less mb,IM3908241
free space disk drive less mb,IM3906772
free space disk drive less mb,IM3906396
free space disk drive less mb,IM3904737
free space disk drive less mb,IM3903965
free space disk drive less mb,IM3903750
free space disk drive less mb,IM3899823
free space disk drive less mb,IM3898337
free space disk drive less mb,IM3897416
free space disk drive less mb,IM3895439
free space disk drive less mb,IM3894724
free space disk drive less mb,IM3892308
free space disk drive less mb,IM3890942
free space disk drive less mb,IM3887671
free space disk drive less mb,IM3886760
free space disk drive less mb,IM3886569
free space disk drive less mb,IM3885318
free space disk drive less mb,IM3883747
free space disk drive less mb,IM3882137
free space disk drive less mb,IM3879193
free space disk drive less mb,IM3876639
free space disk drive less mb,IM3872951
free space disk drive less mb,IM3869232
remote site containing node swohcolib01 unreachable,IM3897855
remote site containing node swohcolib01 unreachable,IM3897794
node down,IM3901864
node down,IM3919670
port host unreachable,IM3911219
remote site containing node cncasdggb01 unreachable,IM3922536
remote site containing node cncasdggb01 unreachable,IM3922327
remote site containing node cncasdggb01 unreachable,IM3922281
filesystem tmp exceed threshold,IM3886247
paging file total usage exceeds threshold,IM3944459
paging file total usage exceeds threshold,IM3940598
paging file total usage exceeds threshold,IM3940636
paging file total usage exceeds threshold,IM3931303
paging file total usage exceeds threshold,IM3920941
paging file total usage exceeds threshold,IM3912501
access point down,IM3937832
access point down,IM3894985
access point down,IM3894222
access point down,IM3887930
access point down,IM3882530
filesystem var exceed threshold,IM3889739
node down,IM3902059
node down,IM3901620
process tools ews tomcat7 0 sprt 02 jdk1 0 06 bin java voilated threshold,IM3924114
process usr local bin node voilated threshold,IM3924113
process tools ews tomcat7 0 sprt 02 jdk1 0 06 bin java voilated threshold,IM3924112
process tools ews tomcat7 0 sprt 02 jdk1 0 06 bin java voilated threshold,IM3924111
process tools ews tomcat7 0 sprt 02 jdk1 0 06 bin java voilated threshold,IM3924109
process tools ews tomcat7 0 sprt 02 jdk1 0 06 bin java voilated threshold,IM3924107
process tools ews tomcat7 0 sprt 02 jdk1 0 06 bin java voilated threshold,IM3924103
process tools ews httpd sbin httpd worker voilated threshold,IM3924093
process tools ews httpd sbin httpd worker voilated threshold,IM3924091
process tools ews httpd sbin httpd worker voilated threshold,IM3924087
process tools ews httpd sbin httpd worker voilated threshold,IM3924086
process tools ews httpd sbin httpd worker voilated threshold,IM3924020
filesystem logs 9u7 production exceeded minor threshold,IM3910100
filesystem logs 9u7 production exceeded minor threshold,IM3874110
free space disk drive less mb,IM3943712
free space disk drive less mb,IM3941405
free space disk drive less mb,IM3932171
free space disk drive less mb,IM3931251
free space disk drive less mb,IM3929701
free space disk drive less mb,IM3925381
free space disk drive less mb,IM3922339
free space disk drive less mb,IM3921646
free space disk drive less mb,IM3919590
free space disk drive less mb,IM3916746
free space disk drive less mb,IM3912424
free space disk drive less mb,IM3906835
free space disk drive less mb,IM3905356
free space disk drive less mb,IM3904035
free space disk drive less mb,IM3897119
free space disk drive less mb,IM3895472
free space disk drive less mb,IM3892461
free space disk drive less mb,IM3891021
free space disk drive less mb,IM3886163
free space disk drive less mb,IM3882207
free space disk drive less mb,IM3880761
free space disk drive less mb,IM3875890
node down,IM3870858
free space disk drive less mb,IM3915283
free space disk drive less mb,IM3912492
free space disk drive less mb,IM3911195
free space disk drive less mb,IM3904101
free space disk drive less mb,IM3901435
drive free space mb mb violated threshold mb,IM3893036
filesystem var exceed threshold,IM3935642
node down,IM3902168
node down,IM3902296
node down,IM3935357
node down,IM3901902
remote site containing node swncchrtb01 unreachable,IM3931275
remote site containing node swncchrtb01 unreachable,IM3887955
remote site containing node swncchrtb01 unreachable,IM3887943
remote site containing node swncchrtb01 unreachable,IM3882301
node down,IM3934651
remote site containing node sahihonur01 unreachable,IM3937893
remote site containing node sahihonur01 unreachable,IM3907449
node down,IM3903651
remote site containing node sahihonur01 unreachable,IM3877105
node down,IM3901784
node down,IM3901708
remote site containing node saaztucgr01 unreachable,IM3925812
node down,IM3916173
node down,IM3908477
remote site containing node satxarlar01 unreachable,IM3937254
remote site containing node satxarlar01 unreachable,IM3925643
remote site containing node satxarlar01 unreachable,IM3919753
remote site containing node satxarlar01 unreachable,IM3913133
remote site containing node satxarlar01 unreachable,IM3912423
remote site containing node satxarlar01 unreachable,IM3901465
remote site containing node satxarlar01 unreachable,IM3874323
node down,IM3921800
node down,IM3920037
remote site containing node sancdurqr01 unreachable,IM3918382
remote site containing node sancdurqr01 unreachable,IM3902592
remote site containing node sancdurqr01 unreachable,IM3889565
node down,IM3904221
node down,IM3891156
remote site containing node sancwinfr01 unreachable,IM3898594
access point down,IM3921069
remote site containing node saflftrhr01 unreachable,IM3944017
remote site containing node saflftrhr01 unreachable,IM3919734
remote site containing node saflftrhr01 unreachable,IM3907055
filesystem var exceed threshold,IM3907520
node down,IM3941513
node down,IM3925678
remote site containing node satxchiar01 unreachable,IM3899806
remote site containing node sacaemoar01 unreachable,IM3928069
remote site containing node sacaemoar01 unreachable,IM3911331
remote site containing node sacaemoar01 unreachable,IM3893505
remote site containing node sacaemoar01 unreachable,IM3892531
remote site containing node sacaemoar01 unreachable,IM3892422
interface down,IM3894578
interface down,IM3892440
node down,IM3925538
node down,IM3899895
node down,IM3898467
node down,IM3898324
node down,IM3892666
node down,IM3873109
node down,IM3897296
node down,IM3872191
remote site containing node sailrlmcr01 unreachable,IM3924100
node down,IM3925537
remote site containing node satxcpaar01 unreachable,IM3918521
remote site containing node sancjnvcr01 unreachable,IM3915693
remote site containing node sancjnvcr01 unreachable,IM3882337
remote site containing node sancjnvcr01 unreachable,IM3882310
node down,IM3899679
paging file total usage exceeds threshold,IM3869424
paging file total usage exceeds threshold,IM3869413
paging file total usage exceeds threshold,IM3868738
paging file total usage exceeds threshold,IM3870136
node down,IM3942035
node down,IM3936391
node down,IM3901818
node down,IM3911258
node down,IM3880672
remote site containing node samochear01 unreachable,IM3925639
remote site containing node samochear01 unreachable,IM3874920
node down,IM3923507
node down,IM3922032
node down,IM3917062
node down,IM3917052
paging file total usage exceeds threshold,IM3870418
paging file total usage exceeds threshold,IM3870403
paging file total usage exceeds threshold,IM3870394
paging file total usage exceeds threshold,IM3870386
paging file total usage exceeds threshold,IM3870382
paging file total usage exceeds threshold,IM3870378
paging file total usage exceeds threshold,IM3870361
paging file total usage exceeds threshold,IM3870356
paging file total usage exceeds threshold,IM3870319
node down,IM3936321
node down,IM3889636
remote site containing node sawibrfar01 unreachable,IM3935623
remote site containing node sawibrfar01 unreachable,IM3908718
remote site containing node sawibrfar01 unreachable,IM3888239
remote site containing node sawibrfar01 unreachable,IM3886056
remote site containing node sawibrfar01 unreachable,IM3884146
remote site containing node sanjmtlbr01 unreachable,IM3936335
remote site containing node sanjmtlbr01 unreachable,IM3891184
remote site containing node sascflobr01 unreachable,IM3924006
remote site containing node sascflobr01 unreachable,IM3921033
remote site containing node sascflobr01 unreachable,IM3898137
remote site containing node sascflobr01 unreachable,IM3892735
remote site containing node sascflobr01 unreachable,IM3885439
drive free space mb mb violated threshold mb,IM3869579
node down,IM3943998
node down,IM3942292
node down,IM3896799
access point down,IM3872043
node down,IM3925579
node down,IM3892658
node down,IM3886413
node down,IM3929994
node down,IM3929970
node down,IM3925677
node down,IM3896512
node down,IM3885719
filesystem var log exceed threshold,IM3940515
filesystem var log exceed threshold,IM3940219
drive free space mb mb violated threshold mb,IM3928475
drive free space mb mb violated threshold mb,IM3869494
drive free space mb mb violated threshold mb,IM3928044
drive free space mb mb violated threshold mb,IM3869502
node down,IM3902271
filesystem tmp exceed threshold,IM3879682
node down,IM3902146
paging file total usage exceeds threshold,IM3870388
paging file total usage exceeds threshold,IM3870380
paging file total usage exceeds threshold,IM3870330
paging file total usage exceeds threshold,IM3870246
paging file total usage exceeds threshold,IM3870105
paging file total usage exceeds threshold,IM3869444
paging file total usage exceeds threshold,IM3869392
node down,IM3902197
process name sshd owner root status major condition currently running processes configured threshold,IM3941801
filesystem home exceed threshold,IM3884924
process name crond owner root status minor condition currently running processes configured threshold,IM3874470
process name crond owner root status minor condition currently running processes configured threshold,IM3874448
access point down,IM3923981
node down,IM3898646
node down,IM3892684
node down,IM3902101
node down,IM3879598
interface down,IM3900550
remote site containing node samanatbr01 unreachable,IM3936901
remote site containing node samanatbr01 unreachable,IM3879430
remote site containing node samanatbr01 unreachable,IM3877446
node down,IM3890718
node down,IM3937854
node down,IM3902216
service 9ss rpp idmdatamartautomation state running,IM3937386
service 9ss rpp idmdatamartautomation state running,IM3930998
service 9ss rpp idmdatamartautomation state running,IM3925930
service 9ss rpp ondemandbackgroundreporting state running,IM3919569
service 9ss rpp idmdatamartautomation state running,IM3917177
service 9ss rpp idmdatamartautomation state running,IM3914846
service 9ss rpp idmdatamartautomation state running,IM3913664
service 9ss rpp idmdatamartautomation state running,IM3913362
service 9ss rpp idmdatamartautomation state running,IM3912236
url http cpp corp sprint com failed load,IM3911325
url https idmrpts corp sprint com failed load,IM3911324
service 9ss rpp idmdatamartautomation state running,IM3910906
service 9ss rpp idmdatamartautomation state running,IM3906640
service 9ss rpp idmdatamartautomation state running,IM3902602
service 9ss rpp idmdatamartautomation state running,IM3898197
service 9ss rpp ondemandbackgroundreporting state running,IM3897798
service 9ss rpp idmdatamartautomation state running,IM3895709
service 9ss rpp idmdatamartautomation state running,IM3892171
service 9ss rpp idmdatamartautomation state running,IM3887042
service 9ss rpp idmdatamartautomation state running,IM3886678
service 9ss rpp idmdatamartautomation state running,IM3885589
service 9ss rpp idmdatamartautomation state running,IM3885164
service 9ss rpp idmdatamartautomation state running,IM3880468
service 9ss rpp idmdatamartautomation state running,IM3877445
service 9ss rpp idmdatamartautomation state running,IM3877067
service 9ss rpp idmdatamartautomation state running,IM3876528
service 9ss rpp idmdatamartautomation state running,IM3872783
service 9ss rpp idmdatamartautomation state running,IM3870511
service 9ss rpp idmdatamartautomation state running,IM3869563
node down,IM3923201
node down,IM3901595
node down,IM3902301
node down,IM3901704
node down,IM3901979
drive free space mb mb violated threshold mb,IM3920890
remote site containing node rtnychkcb01 unreachable,IM3928231
remote site containing node rttnnasub01 unreachable,IM3877704
node down,IM3902213
node down,IM3902063
filesystem apps exceeded minor threshold,IM3917174
filesystem apps exceeded minor threshold,IM3905016
remote site containing node cndcwaspb01 unreachable,IM3936362
remote site containing node cndcwaspb01 unreachable,IM3921930
remote site containing node cndcwaspb01 unreachable,IM3918467
remote site containing node cnohakrcda2 unreachable,IM3913876
process name ntpd owner ntp status minor condition currently running processes configured threshold,IM3909023
paging file total usage exceeds threshold,IM3940733
paging file total usage exceeds threshold,IM3940713
paging file total usage exceeds threshold,IM3940704
paging file total usage exceeds threshold,IM3920882
paging file total usage exceeds threshold,IM3912558
paging file total usage exceeds threshold,IM3920647
free space disk drive less mb,IM3920510
free space disk drive less mb,IM3905671
free space disk drive less mb,IM3905203
free space disk drive less mb,IM3905152
free space disk drive less mb,IM3904573
free space disk drive less mb,IM3903869
free space disk drive less mb,IM3903701
free space disk drive less mb,IM3900916
free space disk drive less mb,IM3899564
free space disk drive less mb,IM3898086
free space disk drive less mb,IM3897428
free space disk drive less mb,IM3897187
free space disk drive less mb,IM3896956
free space disk drive less mb,IM3896801
free space disk drive less mb,IM3895286
free space disk drive less mb,IM3894544
free space disk drive less mb,IM3893626
free space disk drive less mb,IM3892055
free space disk drive less mb,IM3890587
node down,IM3902094
free space disk drive less mb,IM3940726
free space disk drive less mb,IM3937969
node down,IM3880880
node down,IM3902178
node down,IM3902095
node down,IM3941512
node down,IM3901640
node down,IM3936322
node down,IM3917126
node down,IM3916302
filesystem tmp exceed threshold,IM3929755
filesystem tmp exceed threshold,IM3929751
filesystem tmp exceed threshold,IM3929747
free space disk drive less mb,IM3932084
free space disk drive less mb,IM3894697
free space disk drive less mb,IM3872910
node down,IM3901482
node down,IM3943996
node down,IM3943973
mountpoints become read drelf335,IM3940684
process name sshd owner root status major condition currently running processes configured threshold,IM3941799
remote site containing node safltamrr01 unreachable,IM3877034
node down,IM3936235
node down,IM3928325
node down,IM3925504
node down,IM3908435
interface down,IM3889781
node down,IM3902593
node down,IM3902565
node down,IM3901306
node down,IM3898555
node down,IM3887049
node down,IM3885655
node down,IM3888150
remote site containing node satxsanyr01 unreachable,IM3916775
node down,IM3898658
paging file total usage exceeds threshold,IM3870193
remote site containing node sawatcmdr01 unreachable,IM3889752
node down,IM3925591
remote site containing node sawavandr01 unreachable,IM3876587
remote site containing node sawavandr01 unreachable,IM3869371
remote site containing node saflccrar01 unreachable,IM3944001
remote site containing node saflccrar01 unreachable,IM3942326
remote site containing node saflccrar01 unreachable,IM3924152
remote site containing node saflccrar01 unreachable,IM3917021
remote site containing node sacaphibr01 unreachable,IM3945359
node down,IM3924243
node down,IM3891255
node down,IM3887887
node down,IM3942033
node down,IM3936388
remote site containing node sacarocar01 unreachable,IM3918699
remote site containing node sacarocar01 unreachable,IM3890344
remote site containing node sacarocar01 unreachable,IM3884193
remote site containing node sacarocar01 unreachable,IM3873409
node down,IM3894310
node down,IM3886666
node down,IM3873623
node down,IM3941502
remote site containing node sagacovbr01 unreachable,IM3939420
remote site containing node sagacovbr01 unreachable,IM3901535
node down,IM3925598
remote site containing node satxautyr01 unreachable,IM3917048
node down,IM3918435
remote site containing node savaarlir01 unreachable,IM3936355
node down,IM3881348
node down,IM3879871
node down,IM3878826
node down,IM3878606
node down,IM3878082
node down,IM3877674
node down,IM3876578
node down,IM3873631
remote site containing node savaarlir01 unreachable,IM3872197
node down,IM3901608
node down,IM3901759
node down,IM3902221
remote site containing node saprcagcr01 unreachable,IM3919561
remote site containing node saprcagcr01 unreachable,IM3918524
remote site containing node saprcagcr01 unreachable,IM3911571
remote site containing node saprcagcr01 unreachable,IM3910254
remote site containing node saprcagcr01 unreachable,IM3889791
remote site containing node saprcagcr01 unreachable,IM3874138
paging file total usage exceeds threshold,IM3871860
paging file total usage exceeds threshold,IM3871542
paging file total usage exceeds threshold,IM3870373
paging file total usage exceeds threshold,IM3870208
paging file total usage exceeds threshold,IM3869045
node down,IM3871669
node down,IM3936343
node down,IM3919681
remote site containing node satxftwlr01 unreachable,IM3944449
remote site containing node satxftwlr01 unreachable,IM3923997
node down,IM3894745
remote site containing node satxftwlr01 unreachable,IM3887081
remote site containing node satxftwlr01 unreachable,IM3886890
node down,IM3885484
node down,IM3885401
node down,IM3889588
node down,IM3921021
node down,IM3919729
remote site containing node sawablhcr01 unreachable,IM3937608
node down,IM3925543
remote site containing node saflmirar01 unreachable,IM3943990
remote site containing node saflmirar01 unreachable,IM3929926
remote site containing node saflmirar01 unreachable,IM3925817
remote site containing node saflmirar01 unreachable,IM3924158
remote site containing node saflmirar01 unreachable,IM3908454
remote site containing node saflmirar01 unreachable,IM3882346
node down,IM3901735
node down,IM3898702
paging file total usage exceeds threshold,IM3871892
paging file total usage exceeds threshold,IM3870020
remote site containing node sanystiar01 unreachable,IM3908753
remote site containing node sanystiar01 unreachable,IM3888158
remote site containing node sanystiar01 unreachable,IM3887889
remote site containing node sanystiar01 unreachable,IM3876124
node down,IM3925584
node down,IM3901872
node down,IM3901626
filesystem home exceed threshold,IM3880437
filesystem home exceed threshold,IM3880420
node down,IM3902139
filesystem home exceed threshold,IM3941649
filesystem var exceed threshold,IM3904072
node down,IM3902005
node down,IM3901662
node down,IM3902199
node down,IM3902075
swap utilization average 30m,IM3907285
node down,IM3901614
node down,IM3901596
access point down,IM3916085
drive free space mb mb violated threshold mb,IM3897591
drive free space mb mb violated threshold mb,IM3895971
node down,IM3901649
paging file total usage exceeds threshold,IM3870359
url https webservicesgateway sprint com services mvno querycsaservice v1 wsdl failed load,IM3901561
url https webservicesgateway sprint com services mvno querycsaservice v1 wsdl failed load,IM3890982
url https webservicesgateway sprint com services mvno querycsaservice v1 wsdl failed load,IM3890958
url https webservicesgateway sprint com services mvno querycsaservice v1 wsdl failed load,IM3890867
url https webservicesgateway sprint com services mvno querycsaservice v1 wsdl failed load,IM3888719
node down,IM3919682
drive free space kb mb violated threshold mb,IM3907655
drive free space mb mb violated threshold mb,IM3907640
drive free space mb mb violated threshold mb,IM3879559
node down,IM3902336
node down,IM3901998
node down,IM3902195
node down,IM3908528
remote site containing node rtwinblab01 unreachable,IM3918475
node down,IM3902222
remote site containing node cnmdelkad53 unreachable,IM3905470
access point down,IM3886852
node down,IM3902214
remote site containing node rtnjmahdb01 unreachable,IM3928087
node down,IM3902114
free space disk drive less mb,IM3933023
free space disk drive less mb,IM3927853
network associates mcshield service running,IM3918265
please investigate,IM3918265
free space disk drive less mb,IM3918263
free space disk drive less mb,IM3913166
free space disk drive less mb,IM3909862
free space disk drive less mb,IM3905361
free space disk drive less mb,IM3904799
free space disk drive less mb,IM3904057
free space disk drive less mb,IM3901337
network associates mcshield service running,IM3899892
please investigate,IM3899892
free space disk drive less mb,IM3899890
network associates mcshield service running,IM3891069
please investigate,IM3891069
free space disk drive less mb,IM3887760
free space disk drive less mb,IM3886798
free space disk drive less mb,IM3886183
free space disk drive less mb,IM3882240
free space disk drive less mb,IM3875914
free space disk drive less mb,IM3873044
free space disk drive less mb,IM3869359
free space disk drive less mb,IM3934457
free space disk drive less mb,IM3932144
free space disk drive less mb,IM3927697
free space disk drive less mb,IM3925372
free space disk drive less mb,IM3922324
free space disk drive less mb,IM3916732
free space disk drive less mb,IM3915155
free space disk drive less mb,IM3909816
free space disk drive less mb,IM3906812
free space disk drive less mb,IM3895466
free space disk drive less mb,IM3880757
free space disk drive less mb,IM3876679
free space disk drive less mb,IM3875868
free space disk drive less mb,IM3874487
node down,IM3901811
free space disk drive less mb,IM3927532
free space disk drive less mb,IM3925288
free space disk drive less mb,IM3923974
free space disk drive less mb,IM3922876
free space disk drive less mb,IM3921938
free space disk drive less mb,IM3921106
free space disk drive less mb,IM3921005
free space disk drive less mb,IM3920723
free space disk drive less mb,IM3919507
free space disk drive less mb,IM3918139
free space disk drive less mb,IM3917213
free space disk drive less mb,IM3915628
free space disk drive less mb,IM3915261
free space disk drive less mb,IM3914130
free space disk drive less mb,IM3913067
free space disk drive less mb,IM3912342
free space disk drive less mb,IM3908870
free space disk drive less mb,IM3907284
free space disk drive less mb,IM3906906
free space disk drive less mb,IM3905811
free space disk drive less mb,IM3905309
free space disk drive less mb,IM3905022
free space disk drive less mb,IM3904704
free space disk drive less mb,IM3903929
free space disk drive less mb,IM3902758
free space disk drive less mb,IM3901189
free space disk drive less mb,IM3900255
free space disk drive less mb,IM3898906
free space disk drive less mb,IM3898304
free space disk drive less mb,IM3897478
free space disk drive less mb,IM3897412
free space disk drive less mb,IM3897183
free space disk drive less mb,IM3895396
free space disk drive less mb,IM3892988
free space disk drive less mb,IM3891431
free space disk drive less mb,IM3889921
free space disk drive less mb,IM3889349
free space disk drive less mb,IM3888354
free space disk drive less mb,IM3880639
node down,IM3907510
node down,IM3890485
node down,IM3944014
node down,IM3901696
node down,IM3902080
node down,IM3908448
node down,IM3906949
node down,IM3906947
node down,IM3902065
node down,IM3901964
remote site containing node samabosir01 unreachable,IM3923028
remote site containing node samabosir01 unreachable,IM3911320
remote site containing node samabosir01 unreachable,IM3901485
node down,IM3916936
node down,IM3912553
node down,IM3897258
node down,IM3902297
remote site containing node sacanorar01 unreachable,IM3920706
remote site containing node satxelpir01 unreachable,IM3925637
remote site containing node satxelpir01 unreachable,IM3916930
node down,IM3922968
node down,IM3892073
paging file total usage exceeds threshold,IM3868920
filesystem home exceed threshold,IM3894108
free space disk drive less mb,IM3918329
free space disk drive less mb,IM3918317
node down,IM3936117
node down,IM3925518
remote site containing node sanybrobr01 unreachable,IM3936559
node down,IM3908712
node down,IM3888140
node down,IM3874649
remote site containing node saildarar01 unreachable,IM3887923
node down,IM3905464
node down,IM3904921
remote site containing node satxhouyr01 unreachable,IM3873600
remote site containing node sacaricar01 unreachable,IM3886354
remote site containing node sacaricar01 unreachable,IM3880972
node down,IM3945259
node down,IM3943983
node down,IM3937776
node down,IM3915599
node down,IM3915522
remote site containing node sailchoar01 unreachable,IM3911224
node down,IM3931433
remote site containing node sawalakar01 unreachable,IM3875888
node down,IM3875828
paging file total usage exceeds threshold,IM3871034
paging file total usage exceeds threshold,IM3870424
node down,IM3911373
node down,IM3911352
node down,IM3911337
node down,IM3906201
node down,IM3897281
remote site containing node sancwilnr01 unreachable,IM3925473
remote site containing node sancwilnr01 unreachable,IM3885221
remote site containing node saflbocgr01 unreachable,IM3905823
node down,IM3882814
node down,IM3939139
node down,IM3939129
node down,IM3934730
node down,IM3928019
node down,IM3912724
node down,IM3905322
node down,IM3904145
node down,IM3897268
node down,IM3877874
remote site containing node saprhumar01 unreachable,IM3940004
remote site containing node saprhumar01 unreachable,IM3938895
remote site containing node saprhumar01 unreachable,IM3937938
node down,IM3905300
remote site containing node saprhumar01 unreachable,IM3898256
remote site containing node saprhumar01 unreachable,IM3897295
node down,IM3889963
node down,IM3928079
node down,IM3905305
node down,IM3889962
node down,IM3890367
node down,IM3881997
remote site containing node sacalansr01 unreachable,IM3904200
node down,IM3891931
node down,IM3873870
node down,IM3871696
node down,IM3936325
node down,IM3908552
node down,IM3884148
node down,IM3901927
node down,IM3916891
node down,IM3919417
node down,IM3925515
node down,IM3900390
remote site containing node saflcrgar01 unreachable,IM3944011
remote site containing node saflcrgar01 unreachable,IM3937821
remote site containing node saflcrgar01 unreachable,IM3933974
remote site containing node saflcrgar01 unreachable,IM3916989
remote site containing node saflcrgar01 unreachable,IM3916917
node down,IM3881460
remote site containing node saflsnfar01 unreachable,IM3908736
node down,IM3943987
node down,IM3941510
node down,IM3908130
node down,IM3906727
node down,IM3906342
node down,IM3906178
remote site containing node saflcspar01 unreachable,IM3884980
node down,IM3901027
node down,IM3896507
remote site containing node sacaelcdr01 unreachable,IM3925652
node down,IM3893835
node down,IM3919778
node down,IM3929048
filesystem var exceed threshold,IM3907271
node down,IM3902148
filesystem tmp exceed threshold,IM3941483
filesystem tmp exceed threshold,IM3893130
filesystem tmp exceed threshold,IM3893111
node down,IM3901661
node down,IM3902236
aggregator connection nxmolesbx05 port channel313 nxmolesbx64 port channel313 down,IM3901552
paging file total usage exceeds threshold,IM3872089
paging file total usage exceeds threshold,IM3871776
node down,IM3902893
node down,IM3891218
remote site containing node sanjmltbr01 unreachable,IM3936338
remote site containing node sanjmltbr01 unreachable,IM3882362
drive free space mb mb violated threshold mb,IM3928405
drive free space mb mb violated threshold mb,IM3869432
node down,IM3901725
process tools jdk jdk1 0 92 bin java dmule home tools mule lvo apigw211 lvo  voilated threshold,IM3943979
process tools jdk jdk1 0 92 bin java dmule home tools mule lvo apigw211 lvo  voilated threshold,IM3942361
process tools jdk jdk1 0 92 bin java dmule home tools mule lvo apigw211 lvo  voilated threshold,IM3942360
process tools jdk jdk1 0 92 bin java dmule home tools mule lvo apigw211 lvo  voilated threshold,IM3942351
process tools jdk jdk1 0 92 bin java dmule home tools mule lvo apigw211 lvo  voilated threshold,IM3942350
process tools jdk jdk1 0 92 bin java dmule home tools mule lvo apigw211 lvo  voilated threshold,IM3942344
process tools jdk jdk1 0 92 bin java dmule home tools mule lvo apigw211 lvo  voilated threshold,IM3942337
process tools jdk jdk1 0 92 bin java dmule home tools mule lvo apigw211 lvo  voilated threshold,IM3941216
process tools jdk jdk1 0 92 bin java dmule home tools mule lvo apigw211 lvo  voilated threshold,IM3938068
process tools jdk jdk1 0 92 bin java dmule home tools mule lvo apigw211 lvo  voilated threshold,IM3933868
process tools jdk jdk1 0 92 bin java dmule home tools mule lvo apigw211 lvo  voilated threshold,IM3933166
process tools jdk jdk1 0 92 bin java dmule home tools mule lvo apigw211 lvo  voilated threshold,IM3932548
process tools jdk jdk1 0 92 bin java dmule home tools mule lvo apigw211 lvo  voilated threshold,IM3931468
process tools jdk jdk1 0 92 bin java dmule home tools mule lvo apigw211 lvo  voilated threshold,IM3931464
process httpd voilated threshold,IM3931083
process tools jdk jdk1 0 92 bin java dmule home tools mule lvo apigw211 lvo  voilated threshold,IM3927947
process tools jdk jdk1 0 92 bin java dmule home tools mule lvo apigw211 lvo  voilated threshold,IM3927925
process tools jdk jdk1 0 92 bin java dmule home tools mule lvo apigw211 lvo  voilated threshold,IM3927052
process tools jdk jdk1 0 92 bin java dmule home tools mule lvo apigw211 lvo  voilated threshold,IM3927022
process tools jdk jdk1 0 92 bin java dmule home tools mule lvo apigw211 lvo  voilated threshold,IM3925888
process tools jdk jdk1 0 92 bin java dmule home tools mule lvo apigw211 lvo  voilated threshold,IM3924209
process tools jdk jdk1 0 92 bin java dmule home tools mule lvo apigw211 lvo  voilated threshold,IM3924186
process tools jdk jdk1 0 92 bin java dmule home tools mule lvo apigw211 lvo  voilated threshold,IM3922685
process tools jdk jdk1 0 92 bin java dmule home tools mule lvo apigw211 lvo  voilated threshold,IM3921814
process tools jdk jdk1 0 92 bin java dmule home tools mule lvo apigw211 lvo  voilated threshold,IM3921019
process tools jdk jdk1 0 92 bin java dmule home tools mule lvo apigw211 lvo  voilated threshold,IM3920569
process tools jdk jdk1 0 92 bin java dmule home tools mule lvo apigw211 lvo  voilated threshold,IM3920453
process tools jdk jdk1 0 92 bin java dmule home tools mule lvo apigw211 lvo  voilated threshold,IM3918542
process tools jdk jdk1 0 92 bin java dmule home tools mule lvo apigw211 lvo  voilated threshold,IM3915413
process tools jdk jdk1 0 92 bin java dmule home tools mule lvo apigw211 lvo  voilated threshold,IM3913324
